<?xml version="1.0" encoding="utf-8"?>
<!-- Generator: Adobe Illustrator 21.0.2, SVG Export Plug-In . SVG Version: 6.00 Build 0)  -->
<svg version="1.1" id="Layer_1" xmlns="http://www.w3.org/2000/svg" xmlns:xlink="http://www.w3.org/1999/xlink" x="0px" y="0px"
	 viewBox="0 0 32 32" style="enable-background:new 0 0 32 32;" xml:space="preserve">
	<path class="st4" d="M29.69,0H2.31C1.036,0,0,1.1,0,2.45v27.1C0,30.9,1.036,32,2.31,32H29.69c1.273,0,2.31-1.1,2.31-2.45V2.45
		C32,1.1,30.964,0,29.69,0z M30,29.55c0,0.266-0.163,0.45-0.31,0.45H2.31C2.163,30,2,29.815,2,29.55V2.45C2,2.185,2.163,2,2.31,2
		H29.69C29.837,2,30,2.185,30,2.45V29.55z"/>
	<path class="st4" d="M21,11c-1.526,0-2.95,0.685-3.923,1.9l-1.081,1.438L14.8,12.75C13.849,11.638,12.464,11,11,11
		c-2.757,0-5,2.243-5,5s2.243,5,5,5c1.464,0,2.849-0.638,3.839-1.799l1.158-1.539l1.099,1.461C18.05,20.315,19.474,21,21,21
		c2.757,0,5-2.243,5-5S23.757,11,21,11z M13.28,17.949C12.709,18.617,11.878,19,11,19c-1.654,0-3-1.346-3-3s1.346-3,3-3
		c0.878,0,1.709,0.383,2.241,1.002l1.504,1.999L13.28,17.949z M21,19c-0.916,0-1.771-0.411-2.325-1.104L17.247,16l1.409-1.873
		C19.229,13.411,20.084,13,21,13c1.654,0,3,1.346,3,3S22.654,19,21,19z"/>
</svg>
