<?xml version="1.0" encoding="UTF-8"?>
<svg width="53px" height="52px" viewBox="0 0 53 52" version="1.1" xmlns="http://www.w3.org/2000/svg" xmlns:xlink="http://www.w3.org/1999/xlink">
    <!-- Generator: Sketch 43.2 (39069) - http://www.bohemiancoding.com/sketch -->
    <title>cloud-66-logo</title>
    <desc>Created with Sketch.</desc>
    <defs></defs>
    <g id="Desktop" stroke="none" stroke-width="1" fill="none" fill-rule="evenodd">
        <g id="installation-page-v5" transform="translate(-774.000000, -1943.000000)" fill="#444444">
            <g id="One-click-install-providers" transform="translate(315.000000, 1837.000000)">
                <g id="cloud-66" transform="translate(335.000000, 86.000000)">
                    <path d="M158.330042,62.8186449 C153.591206,62.8186449 151.262223,59.2768261 151.262223,55.0197995 C151.262223,51.6702329 152.494813,48.8684673 154.41205,47.083565 C156.193135,45.4631831 158.494155,44.5848634 161.287838,44.4477515 C162.055405,44.3926343 162.548045,44.3926343 162.959215,44.420343 L162.959215,47.6209984 L162.965227,47.6209984 C162.499674,47.6209984 162.006459,47.6209984 161.349153,47.6755615 C157.65113,47.9777249 156.007416,49.8723306 155.541841,51.9594194 L155.623909,51.9594194 C156.500033,51.0525597 157.733199,50.5315668 159.404553,50.5315668 C162.389989,50.5315668 164.903792,52.6385828 164.903792,56.3532808 C164.903792,59.8962542 162.192754,62.8062222 158.330042,62.8186449 M143.128831,62.8186449 C138.390272,62.8186449 136.061588,59.2768261 136.061588,55.0197995 C136.061588,51.6702329 137.294455,48.8684673 139.211691,47.083565 C140.992477,45.4631831 143.293797,44.5848634 146.087479,44.4477515 C146.85477,44.3926343 147.347686,44.3926343 147.758258,44.420343 L147.758258,47.6209984 L147.764891,47.6209984 C147.299316,47.6209984 146.8064,47.6209984 146.148794,47.6755615 C142.450772,47.9777249 140.807058,49.8723306 140.341782,51.9594194 L140.423827,51.9594194 C141.299974,51.0525597 142.533116,50.5315668 144.203918,50.5315668 C147.18993,50.5315668 149.703157,52.6385828 149.703157,56.3532808 C149.703157,59.8962542 146.991819,62.8062222 143.128831,62.8186449 M176.976782,40.7261494 C177.610203,63.8721529 150.521145,72.0115845 150.535241,71.9962755 L150.470172,71.9962755 C150.470172,71.9850304 123.39088,63.874462 124.01048,40.7261494 L176.966993,40.7261494 L176.976782,40.7261494 Z M158.034071,53.4975572 C156.911742,53.4975572 155.979762,54.1836247 155.569191,55.0902304 C155.459506,55.3101682 155.405077,55.6397632 155.405077,56.1336247 C155.487146,58.038598 156.384,59.7415288 158.28426,59.7314382 L158.307893,59.7314382 L158.307893,59.731138 C159.759853,59.731138 160.691557,58.3855341 160.691557,56.5732002 C160.691557,54.9254098 159.814857,53.4975572 158.034071,53.4975572 Z M142.833998,53.4975572 C141.711416,53.4975572 140.779689,54.1836247 140.368842,55.0902304 C140.259433,55.3101682 140.204728,55.6397632 140.204728,56.1336247 C140.286796,58.038598 141.18365,59.7415288 143.083911,59.7314382 L143.108096,59.7314382 L143.108096,59.731138 C144.55978,59.731138 145.491484,58.3855341 145.491484,56.5732002 C145.491484,54.9254098 144.614784,53.4975572 142.833998,53.4975572 Z M170.328744,20.2650661 C174.415203,27.3053396 176.38005,33.4804551 176.850669,38.8895865 L124.114978,38.8895865 C124.60444,33.479162 126.550491,27.3024302 130.650724,20.2598014 C130.650724,20.2598014 139.691358,25.5129098 150.456071,20.0000323 L150.520841,20.0136096 C161.097738,25.434979 170.018414,20.4422401 170.328744,20.2650661 Z M169.122367,34.4945705 C169.884797,33.8471798 170.436449,32.7994444 170.436449,31.2815155 C170.436449,29.8787623 169.90638,28.8974124 169.083233,28.2912845 C168.305853,27.7140199 167.33239,27.4542508 165.829756,27.4542508 C164.925692,27.4542508 164.067972,27.5128547 163.411242,27.6190714 L163.439159,27.6190714 L163.439159,35.3875989 C163.885133,35.4459027 164.541886,35.5047837 165.47101,35.5047837 C167.020287,35.5183609 168.287979,35.1890199 169.122367,34.4945705 Z M166.027537,28.831311 C167.565896,28.831311 168.528695,29.7024265 168.516879,31.3507941 C168.516879,33.2453767 167.460219,34.1282915 165.840091,34.1282915 C165.609756,34.1222417 165.359567,34.1222417 165.206671,34.0933785 L165.217335,34.0933785 L165.217335,28.9026147 C165.370231,28.8668243 165.628782,28.831311 166.027537,28.831311 Z M160.99213,31.9621105 L160.99213,27.5131318 L159.207336,27.5131318 L159.207336,32.0804497 C159.207336,33.4808938 158.690534,34.1398529 157.75017,34.1398529 C156.828831,34.1297393 156.310578,33.4370217 156.310578,32.0804497 L156.310578,27.5131318 L154.521753,27.5131318 L154.521753,31.9393201 C154.521753,34.4700483 155.695884,35.5763645 157.691734,35.5763645 C159.758987,35.5763645 160.99213,34.4111673 160.99213,31.9621105 Z M152.474078,31.3984231 L152.474931,31.3984231 C152.474931,29.2074036 151.147074,27.3890199 148.716745,27.3844018 C146.3797,27.3844018 144.86525,29.1612224 144.86525,31.5395528 C144.86525,33.7989666 146.238344,35.5766647 148.586882,35.5766647 C150.900018,35.5766647 152.474078,33.9990004 152.474078,31.3984231 Z M148.673262,28.8145773 C149.906428,28.8145773 150.586491,30.0389556 150.586491,31.4633446 C150.586491,33.0049414 149.89346,34.1585933 148.684779,34.1585933 C147.475522,34.1585933 146.755726,33.0617904 146.755726,31.5031989 L146.745361,31.5031989 C146.745361,29.9578615 147.459675,28.8033321 148.673262,28.8145773 Z M143.73949,35.4467801 L143.73949,33.9401194 L140.593994,33.9401194 L140.593994,27.5131318 L138.796808,27.5131318 L138.796808,35.4467801 L143.73949,35.4467801 Z M134.989376,34.081249 C133.405825,34.0893307 132.455695,33.0791176 132.455695,31.4916398 C132.455695,29.7257872 133.558422,28.8665403 134.979863,28.8665403 C135.614159,28.8665403 136.118592,29.0085474 136.482797,29.1606451 L136.847025,27.7365332 C136.530315,27.5858671 135.817706,27.3838245 134.889181,27.3838245 C132.494553,27.3838245 130.568955,28.8902082 130.568955,31.5975794 C130.568955,33.8575705 131.977751,35.5763645 134.71355,35.5763645 C135.676349,35.5763645 136.416299,35.3878991 136.744802,35.2233556 L136.480793,33.8226345 C136.128081,33.963487 135.529211,34.081249 134.989376,34.081249 Z" id="cloud-66-logo"></path>
                </g>
            </g>
        </g>
    </g>
</svg>